Inference for Regression
…
parameters: \(\beta_0\), \(\beta_1\)

statistics: \(b_0\), \(b_1\)

Classical tools of inference:

Confidence Intervals

Hypothesis Tests

Unemployment and elections

ump

# A tibble: 29 × 5
    year potus                     party      unemp change
   <dbl> <chr>                     <fct>      <dbl>  <dbl>
 1  1899 William McKinley          Republican 11.6   -9.22
 2  1903 Theodore Roosevelt        Republican  4.3   -4.28
 3  1907 Theodore Roosevelt        Republican  3.29 -12.3 
 4  1911 William Howard Taft       Republican  5.86 -26.6 
 5  1915 Woodrow Wilson            Democratic  6.63 -21.0 
 6  1919 Woodrow Wilson            Democratic  3.38 -10.3 
 7  1923 Calvin Coolidge           Republican  6.93 -25.5 
 8  1927 Calvin Coolidge           Republican  4.02  -3.64
 9  1931 Herbert Clark Hoover      Republican  8.94 -19.3 
10  1935 Franklin Delano Roosevelt Democratic 21.3    2.88
# … with 19 more rows
…
Generate synthetic data sets under \(H_0\) by shuffling \(X\).

Compute a new regression line for each data set and store each \(b_1\).

See where your observed \(b_1\) falls in the distribution of \(b_1\)’s under \(H_0\).

Your turn

Take a moment to sketch out the infer pipeline that will results in a collection of 500 slopes that would might see in a world where the null hypothesis was true.

Turn to a neighbor and discuss your pipeline. I will ask for a pair to share.

ump

# A tibble: 27 × 5
    year potus                     party      unemp change
   <dbl> <chr>                     <fct>      <dbl>  <dbl>
 1  1899 William McKinley          Republican 11.6   -9.22
 2  1903 Theodore Roosevelt        Republican  4.3   -4.28
 3  1907 Theodore Roosevelt        Republican  3.29 -12.3 
 4  1911 William Howard Taft       Republican  5.86 -26.6 
 5  1915 Woodrow Wilson            Democratic  6.63 -21.0 
 6  1919 Woodrow Wilson            Democratic  3.38 -10.3 
 7  1923 Calvin Coolidge           Republican  6.93 -25.5 
 8  1927 Calvin Coolidge           Republican  4.02  -3.64
 9  1931 Herbert Clark Hoover      Republican  8.94 -19.3 
10  1943 Franklin Delano Roosevelt Democratic  4.7  -16.9 
# … with 17 more rows
…
First shuffle

library(infer)
ump %>%
  specify(change ~ unemp) %>%
  hypothesize(null = "independence") %>%
  generate(1, type = "permute")

Response: change (numeric)
Explanatory: unemp (numeric)
Null Hypothesis: independence
# A tibble: 27 × 3
# Groups:   replicate [1]
   change unemp replicate
    <dbl> <dbl>     <int>
 1 -16.9  11.6          1
 2 -25     4.3          1
 3 -24.2   3.29         1
 4  -8.14  5.86         1
 5 -10.6   6.63         1
 6 -24.9   3.38         1
 7  -4.57  6.93         1
 8  -5.14  4.02         1
 9 -26.6   8.94         1
10 -16.3   4.7          1
# … with 17 more rows

Second shuffle

library(infer)
ump %>%
  specify(change ~ unemp) %>%
  hypothesize(null = "independence") %>%
  generate(1, type = "permute")

Response: change (numeric)
Explanatory: unemp (numeric)
Null Hypothesis: independence
# A tibble: 27 × 3
# Groups:   replicate [1]
   change unemp replicate
    <dbl> <dbl>     <int>
 1 -16.9  11.6          1
 2 -25     4.3          1
 3 -24.2   3.29         1
 4  -8.14  5.86         1
 5 -10.6   6.63         1
 6 -24.9   3.38         1
 7  -4.57  6.93         1
 8  -5.14  4.02         1
 9 -26.6   8.94         1
10 -16.3   4.7          1
# … with 17 more rows

shuffle2 <- ump %>%
  specify(change ~ unemp) %>%
  hypothesize(null = "independence") %>%
  generate(1, type = "permute")
shuffle2

Response: change (numeric)
Explanatory: unemp (numeric)
Null Hypothesis: independence
# A tibble: 27 × 3
# Groups:   replicate [1]
   change unemp replicate
    <dbl> <dbl>     <int>
 1  -8.14 11.6          1
 2 -25     4.3          1
 3 -22.3   3.29         1
 4 -19.3   5.86         1
 5 -13.5   6.63         1
 6 -25.5   3.38         1
 7  -4.28  6.93         1
 8  -5.14  4.02         1
 9 -12.9   8.94         1
10 -24.9   4.7          1
# … with 17 more rows
…
Generate 500 permuted \(b_1\)’s

null <- ump %>%
  specify(change ~ unemp) %>%
  hypothesize(null = "independence") %>%
  generate(reps = 500, type = "permute") %>%
  calculate(stat = "slope")
null

Response: change (numeric)
Explanatory: unemp (numeric)
Null Hypothesis: independence
# A tibble: 500 × 2
   replicate    stat
       <int>   <dbl>
 1         1  0.827 
 2         2  0.0721
 3         3  0.298 
 4         4  1.27  
 5         5  0.701 
 6         6  1.80  
 7         7 -0.770 
 8         8 -0.955 
 9         9 -1.14  
10        10  1.04  
# … with 490 more rows
…
