Permutation and Taking Draws
…
\(^1\)A permutation test actually uses a weaker assumption than independence called exchangability. Take STAT 134 to learn more.

promote %>%
  specify(response = decision,
          explanatory = gender,
          success = "promote") %>%
  hypothesize(null = "independence") %>%
  generate(reps = 1,
           type = "permute")

Response: decision (factor)
Explanatory: gender (factor)
Null Hypothesis: independence
# A tibble: 48 × 3
# Groups:   replicate [1]
   decision    gender replicate
   <fct>       <fct>      <int>
 1 promote     female         1
 2 not promote male           1
 3 promote     male           1
 4 promote     female         1
 5 promote     male           1
 6 promote     female         1
 7 promote     female         1
 8 not promote female         1
 9 not promote female         1
10 not promote female         1
# … with 38 more rows
…
\(^1\)A permutation test actually uses a weaker assumption than independence called exchangability. Take STAT 134 to learn more.

promote %>%
  specify(response = decision,
          explanatory = gender,
          success = "promote") %>%
  hypothesize(null = "independence") %>%
  generate(reps = 1,
           type = "permute")

Response: decision (factor)
Explanatory: gender (factor)
Null Hypothesis: independence
# A tibble: 48 × 3
# Groups:   replicate [1]
   decision    gender replicate
   <fct>       <fct>      <int>
 1 not promote female         1
 2 promote     male           1
 3 not promote male           1
 4 not promote female         1
 5 promote     male           1
 6 promote     female         1
 7 not promote female         1
 8 promote     female         1
 9 promote     female         1
10 promote     female         1
# … with 38 more rows
…
Pipeline for a Permutation Test

promote %>%
  specify(response = decision,
          explanatory = gender,
          success = "promote")

Response: decision (factor)
Explanatory: gender (factor)
# A tibble: 48 × 2
   decision    gender
   <fct>       <fct> 
 1 promote     female
 2 promote     male  
 3 promote     male  
 4 not promote female
 5 promote     male  
 6 promote     female
 7 promote     female
 8 not promote female
 9 not promote female
10 not promote female
# … with 38 more rows

Pipeline for a Permutation Test

promote %>%
  specify(response = decision,
          explanatory = gender,
          success = "promote") %>%
  hypothesize(null = "independence")

Response: decision (factor)
Explanatory: gender (factor)
Null Hypothesis: independence
# A tibble: 48 × 2
   decision    gender
   <fct>       <fct> 
 1 promote     female
 2 promote     male  
 3 promote     male  
 4 not promote female
 5 promote     male  
 6 promote     female
 7 promote     female
 8 not promote female
 9 not promote female
10 not promote female
# … with 38 more rows

Pipeline for a Permutation Test

promote %>%
  specify(response = decision,
          explanatory = gender,
          success = "promote") %>%
  hypothesize(null = "independence") %>%
  generate(reps = 500,
           type = "permute")

Response: decision (factor)
Explanatory: gender (factor)
Null Hypothesis: independence
# A tibble: 24,000 × 3
# Groups:   replicate [500]
   decision    gender replicate
   <fct>       <fct>      <int>
 1 promote     female         1
 2 promote     male           1
 3 not promote male           1
 4 promote     female         1
 5 promote     male           1
 6 promote     female         1
 7 promote     female         1
 8 not promote female         1
 9 promote     female         1
10 promote     female         1
# … with 23,990 more rows
Pipeline for a Permutation Test

promote %>%
  specify(response = decision,
          explanatory = gender,
          success = "promote") %>%
  hypothesize(null = "independence") %>%
  generate(reps = 500,
           type = "permute") %>%
  calculate(stat = "diff in props")

Response: decision (factor)
Explanatory: gender (factor)
Null Hypothesis: independence
# A tibble: 500 × 2
   replicate    stat
       <int>   <dbl>
 1         1 -0.125 
 2         2 -0.0417
 3         3 -0.0417
 4         4 -0.292 
 5         5  0.208 
 6         6 -0.0417
 7         7 -0.125 
 8         8 -0.0417
 9         9 -0.125 
10        10 -0.0417
# … with 490 more rows
…
Pipeline for a Test on One Proption

millennials %>%
  specify(response = response,
          success = "favor")

Response: response (factor)
# A tibble: 75 × 1
   response    
   <fct>       
 1 do not favor
 2 do not favor
 3 do not favor
 4 favor       
 5 do not favor
 6 favor       
 7 favor       
 8 favor       
 9 do not favor
10 favor       
# … with 65 more rows

Pipeline for a Test on One Proption

millennials %>%
  specify(response = response,
          success = "favor") %>%
  hypothesize(null = "point",
              p = .5)

Response: response (factor)
Null Hypothesis: point
# A tibble: 75 × 1
   response    
   <fct>       
 1 do not favor
 2 do not favor
 3 do not favor
 4 favor       
 5 do not favor
 6 favor       
 7 favor       
 8 favor       
 9 do not favor
10 favor       
# … with 65 more rows

Pipeline for a Test on One Proption

millennials %>%
  specify(response = response,
          success = "favor") %>%
  hypothesize(null = "point",
              p = .5) %>%
  generate(reps = 500,
           type = "draw")

Response: response (factor)
Null Hypothesis: point
# A tibble: 37,500 × 2
# Groups:   replicate [500]
   response     replicate
   <fct>        <fct>    
 1 favor        1        
 2 do not favor 1        
 3 favor        1        
 4 do not favor 1        
 5 do not favor 1        
 6 favor        1        
 7 favor        1        
 8 favor        1        
 9 favor        1        
10 favor        1        
# … with 37,490 more rows

Pipeline for a Test on One Proption

millennials %>%
  specify(response = response,
          success = "favor") %>%
  hypothesize(null = "point",
              p = .5) %>%
  generate(reps = 500,
           type = "draw") %>%
  calculate(stat = "prop")

Response: response (factor)
Null Hypothesis: point
# A tibble: 500 × 2
   replicate  stat
   <fct>     <dbl>
 1 1         0.48 
 2 2         0.533
 3 3         0.44 
 4 4         0.387
 5 5         0.44 
 6 6         0.413
 7 7         0.467
 8 8         0.547
 9 9         0.52 
10 10        0.48 
# … with 490 more rows
…
