Goodness of Fit
…
ben_prop <- log10(1 + 1/1:9)
names(ben_prop) <- 1:9
ben_prop

         1          2          3          4          5          6          7 
0.30103000 0.17609126 0.12493874 0.09691001 0.07918125 0.06694679 0.05799195 
         8          9 
0.05115252 0.04575749 

Generating one data set pipeline

iran

# A tibble: 366 × 10
   province        city       ahmadinejad rezai karrubi mousavi total_votes_cast
   <chr>           <chr>            <int> <int>   <int>   <int>            <int>
 1 East Azerbaijan Azar Shahr       37203   453     138   18312            56712
 2 East Azerbaijan Asko             32510   481     468   18799            52643
 3 East Azerbaijan Ahar             47938   568     173   26220            75500
 4 East Azerbaijan Bostan Ab…       38610   281      53   12603            51911
 5 East Azerbaijan Bonab            36395   485     190   33695            71389
 6 East Azerbaijan Tabriz          435728  9830    3513  419983           876919
 7 East Azerbaijan Jalfa            20520   166      74   14340            35295
 8 East Azerbaijan Chahar o …       12197    55      46    3975            16375
 9 East Azerbaijan Sarab            53196   442     211   17669            72152
10 East Azerbaijan Shabestar        37099   391     126   39182            77459
# … with 356 more rows, and 3 more variables: voided_votes <int>,
#   legitimate_votes <int>, digit <dbl>

Generating one data set pipeline

iran %>%
  specify(response = digit)

Response: digit (numeric)
# A tibble: 366 × 1
   digit
   <dbl>
 1     3
 2     3
 3     4
 4     3
 5     3
 6     4
 7     2
 8     1
 9     5
10     3
# … with 356 more rows

Generating one data set pipeline

iran %>%
  specify(response = digit) %>%
  hypothesize(null = "point",
              p = ben_prop)

Response: digit (numeric)
Null Hypothesis: point
# A tibble: 366 × 1
   digit
   <dbl>
 1     3
 2     3
 3     4
 4     3
 5     3
 6     4
 7     2
 8     1
 9     5
10     3
# … with 356 more rows

Generating one data set pipeline

iran %>%
  specify(response = digit) %>%
  hypothesize(null = "point",
              p = ben_prop) %>%
  generate(reps = 1, 
           type = "draw")

Response: digit (numeric)
Null Hypothesis: point
# A tibble: 366 × 2
# Groups:   replicate [1]
   digit replicate
   <fct> <fct>    
 1 2     1        
 2 5     1        
 3 3     1        
 4 1     1        
 5 4     1        
 6 9     1        
 7 5     1        
 8 3     1        
 9 6     1        
10 1     1        
# … with 356 more rows

Generating one data set pipeline

iran %>%
  specify(response = digit) %>%
  hypothesize(null = "point",
              p = ben_prop) %>%
  generate(reps = 1,
           type = "draw")

Response: digit (numeric)
Null Hypothesis: point
# A tibble: 366 × 2
# Groups:   replicate [1]
   digit replicate
   <fct> <fct>    
 1 1     1        
 2 4     1        
 3 2     1        
 4 5     1        
 5 4     1        
 6 3     1        
 7 5     1        
 8 9     1        
 9 1     1        
10 4     1        
# … with 356 more rows
…
Goodness of Fit pipeline

iran %>%
  mutate(digit = factor(digit)) %>%
  specify(response = digit) %>%
  hypothesize(null = "point",
              p = ben_prop) %>%
  generate(reps = 500, type = "draw")

Response: digit (factor)
Null Hypothesis: point
# A tibble: 183,000 × 2
# Groups:   replicate [500]
   digit replicate
   <fct> <fct>    
 1 1     1        
 2 1     1        
 3 1     1        
 4 2     1        
 5 1     1        
 6 5     1        
 7 1     1        
 8 6     1        
 9 1     1        
10 1     1        
# … with 182,990 more rows

Goodness of Fit pipeline

null <- iran %>%
  mutate(digit = factor(digit)) %>%
  specify(response = digit) %>%
  hypothesize(null = "point",
              p = ben_prop) %>%
  generate(reps = 500, type = "draw") %>%
  calculate(stat = "Chisq")
null

Response: digit (factor)
Null Hypothesis: point
# A tibble: 500 × 2
   replicate  stat
   <fct>     <dbl>
 1 1          9.74
 2 2          5.12
 3 3         15.1 
 4 4          7.68
 5 5          5.13
 6 6          2.96
 7 7         10.8 
 8 8          8.20
 9 9          6.11
10 10         9.32
# … with 490 more rows
…
