Arbuthnot’s Christening Records
…
???
>Most children, shortly after they're born, are taken to the nearby parish church and "christened" - given a name in the church. The parish churches record the name and date of each of these christenings.

>Arbuthnot went from parish church to parish church in London, pored over these records and tallied the number of boys and girls. He then combined these counts across all of the parishes and created a data set that we can read into R today.

---

```r
library(stat20data)
data(arbuthnot)
arbuthnot
```

```
## # A tibble: 82 × 3
##     year  boys girls
##    <int> <int> <int>
##  1  1629  5218  4683
##  2  1630  4858  4457
##  3  1631  4422  4102
##  4  1632  4994  4590
##  5  1633  5158  4839
##  6  1634  5035  4820
##  7  1635  5106  4928
##  8  1636  4917  4605
##  9  1637  4703  4457
## 10  1638  5359  4952
## # … with 72 more rows
```
…
What command would you use to extract just the counts of girls christened?

--

```r
library(tidyverse)
library(stat20data)
data(arbuthnot)
select(arbuthnot, girls)
```

--

```
## # A tibble: 82 × 1
##    girls
##    <int>
##  1  4683
##  2  4457
##  3  4102
##  4  4590
##  5  4839
##  6  4820
##  7  4928
##  8  4605
##  9  4457
## 10  4952
## # … with 72 more rows
```
…
