Lab: Arbuthnot
…
--

* `mutate()` : create a new column from existing column(s)

---
# Selecting columns
--

```r
select(penguins, species, island)
```
--

```
## # A tibble: 344 × 2
##    species island   
##    <fct>   <fct>    
##  1 Adelie  Torgersen
##  2 Adelie  Torgersen
##  3 Adelie  Torgersen
##  4 Adelie  Torgersen
##  5 Adelie  Torgersen
##  6 Adelie  Torgersen
##  7 Adelie  Torgersen
##  8 Adelie  Torgersen
##  9 Adelie  Torgersen
## 10 Adelie  Torgersen
## # … with 334 more rows
```

---
# Arranging the data frame by a column
--

```r
arrange(penguins, bill_length_mm)
```
--

```
## # A tibble: 344 × 8
##    species island    bill_length_mm bill_depth_mm flipper_length_mm body_mass_g
##    <fct>   <fct>              <dbl>         <dbl>             <int>       <int>
##  1 Adelie  Dream               32.1          15.5               188        3050
##  2 Adelie  Dream               33.1          16.1               178        2900
##  3 Adelie  Torgersen           33.5          19                 190        3600
##  4 Adelie  Dream               34            17.1               185        3400
##  5 Adelie  Torgersen           34.1          18.1               193        3475
##  6 Adelie  Torgersen           34.4          18.4               184        3325
##  7 Adelie  Biscoe              34.5          18.1               187        2900
##  8 Adelie  Torgersen           34.6          21.1               198        4400
##  9 Adelie  Torgersen           34.6          17.2               189        3200
## 10 Adelie  Biscoe              35            17.9               190        3450
## # … with 334 more rows, and 2 more variables: sex <fct>, year <int>
```
--

> You can sort in descending order by wrapping the variable name in `desc()`.

---
# Mutating a new column
--

```r
mutate(penguins, bill_index = bill_depth_mm + bill_length_mm)
```
--

```
## # A tibble: 344 × 9
##    species island    bill_length_mm bill_depth_mm flipper_length_mm body_mass_g
##    <fct>   <fct>              <dbl>         <dbl>             <int>       <int>
##  1 Adelie  Torgersen           39.1          18.7               181        3750
##  2 Adelie  Torgersen           39.5          17.4               186        3800
##  3 Adelie  Torgersen           40.3          18                 195        3250
##  4 Adelie  Torgersen           NA            NA                  NA          NA
##  5 Adelie  Torgersen           36.7          19.3               193        3450
##  6 Adelie  Torgersen           39.3          20.6               190        3650
##  7 Adelie  Torgersen           38.9          17.8               181        3625
##  8 Adelie  Torgersen           39.2          19.6               195        4675
##  9 Adelie  Torgersen           34.1          18.1               193        3475
## 10 Adelie  Torgersen           42            20.2               190        4250
## # … with 334 more rows, and 3 more variables: sex <fct>, year <int>,
## #   bill_index <dbl>
```
--

> Remember that you can nest functions.

---
# Mutating a new column
--

```r
select(mutate(penguins, bill_index = bill_depth_mm + bill_length_mm), bill_index)
```
--

```
## # A tibble: 344 × 1
##    bill_index
##         <dbl>
##  1       57.8
##  2       56.9
##  3       58.3
##  4       NA  
##  5       56  
##  6       59.9
##  7       56.7
##  8       58.8
##  9       52.2
## 10       62.2
## # … with 334 more rows
```
…
