Subsets
…
> `%in%` can be used to evaluate membership in a set.

---
## Adding a grouping variable
--

```r
class_survey <- mutate(class_survey,
                       first_year = time_at_cal == "I'm in my first year.")
class_survey
```
--

```
## # A tibble: 552 × 3
##    time_at_cal            remote_sem first_year
##    <chr>                       <dbl> <lgl>     
##  1 I'm in my second year.        0.3 FALSE     
##  2 I'm in my second year.        0.5 FALSE     
##  3 I'm in my first year.         0   TRUE      
##  4 I'm in my third year.         0.7 FALSE     
##  5 I'm in my second year.        0.2 FALSE     
##  6 I'm in my second year.        0.3 FALSE     
##  7 I'm in my first year.         0.5 TRUE      
##  8 I'm in my first year.         0.4 TRUE      
##  9 I'm in my first year.         0.3 TRUE      
## 10 I'm in my first year.         0.5 TRUE      
## # … with 542 more rows
```
…
---

```r
first_yr_df <- filter(class_survey, first_year)
first_yr_df
```
--

```
## # A tibble: 238 × 3
##    time_at_cal           remote_sem first_year
##    <chr>                      <dbl> <lgl>     
##  1 I'm in my first year.       0    TRUE      
##  2 I'm in my first year.       0.5  TRUE      
##  3 I'm in my first year.       0.4  TRUE      
##  4 I'm in my first year.       0.3  TRUE      
##  5 I'm in my first year.       0.5  TRUE      
##  6 I'm in my first year.       0.5  TRUE      
##  7 I'm in my first year.       0.25 TRUE      
##  8 I'm in my first year.       0.3  TRUE      
##  9 I'm in my first year.       0.1  TRUE      
## 10 I'm in my first year.       0.2  TRUE      
## # … with 228 more rows
```
…
