Lab 7B: Hypothesis Testing
…
> What sort of visualization can we use to see the association between these two variables?

--

.pull-left[

```r
class_survey %>%
  select(mts_beach, warm_fav)
```

```
## # A tibble: 549 × 2
##    mts_beach        warm_fav
##    <chr>            <lgl>   
##  1 In the mountains TRUE    
##  2 In the mountains FALSE   
##  3 At the beach     FALSE   
##  4 At the beach     FALSE   
##  5 In the mountains FALSE   
##  6 In the mountains TRUE    
##  7 At the beach     FALSE   
##  8 In the mountains FALSE   
##  9 In the mountains FALSE   
## 10 At the beach     TRUE    
## # … with 539 more rows
```
…
---
## Hypothesis Test Pipeline

```r
class_survey %>%
* specify(response = warm_fav,
*         explanatory = mts_beach,
*         success = "TRUE")
```

```
## Response: warm_fav (factor)
## Explanatory: mts_beach (factor)
## # A tibble: 549 × 2
##    warm_fav mts_beach       
##    <fct>    <fct>           
##  1 TRUE     In the mountains
##  2 FALSE    In the mountains
##  3 FALSE    At the beach    
##  4 FALSE    At the beach    
##  5 FALSE    In the mountains
##  6 TRUE     In the mountains
##  7 FALSE    At the beach    
##  8 FALSE    In the mountains
##  9 FALSE    In the mountains
## 10 TRUE     At the beach    
## # … with 539 more rows
```
…
```r
class_survey %>%
  specify(response = warm_fav,
          explanatory = mts_beach,
          success = "TRUE") %>%
* hypothesize(null = "independence")
```

```
## Response: warm_fav (factor)
## Explanatory: mts_beach (factor)
## Null Hypothesis: independence
## # A tibble: 549 × 2
##    warm_fav mts_beach       
##    <fct>    <fct>           
##  1 TRUE     In the mountains
##  2 FALSE    In the mountains
##  3 FALSE    At the beach    
##  4 FALSE    At the beach    
##  5 FALSE    In the mountains
##  6 TRUE     In the mountains
##  7 FALSE    At the beach    
##  8 FALSE    In the mountains
##  9 FALSE    In the mountains
## 10 TRUE     At the beach    
## # … with 539 more rows
```
…
```r
class_survey %>%
  specify(response = warm_fav,
          explanatory = mts_beach,
          success = "TRUE") %>%
  hypothesize(null = "independence") %>%
  generate(reps = 1,
           type = "permute")
```

```
## Response: warm_fav (factor)
## Explanatory: mts_beach (factor)
## Null Hypothesis: independence
## # A tibble: 549 × 3
## # Groups:   replicate [1]
##    warm_fav mts_beach        replicate
##    <fct>    <fct>                <int>
##  1 TRUE     In the mountains         1
##  2 FALSE    In the mountains         1
##  3 FALSE    At the beach             1
##  4 TRUE     At the beach             1
##  5 TRUE     In the mountains         1
##  6 TRUE     In the mountains         1
##  7 TRUE     At the beach             1
##  8 TRUE     In the mountains         1
##  9 FALSE    In the mountains         1
## 10 FALSE    At the beach             1
## # … with 539 more rows
```
…
```r
class_survey %>%
  specify(response = warm_fav,
          explanatory = mts_beach,
          success = "TRUE") %>%
  hypothesize(null = "independence") %>%
  generate(reps = 1,
           type = "permute") # a second shuffle
```

```
## Response: warm_fav (factor)
## Explanatory: mts_beach (factor)
## Null Hypothesis: independence
## # A tibble: 549 × 3
## # Groups:   replicate [1]
##    warm_fav mts_beach        replicate
##    <fct>    <fct>                <int>
##  1 FALSE    In the mountains         1
##  2 FALSE    In the mountains         1
##  3 TRUE     At the beach             1
##  4 FALSE    At the beach             1
##  5 TRUE     In the mountains         1
##  6 FALSE    In the mountains         1
##  7 TRUE     At the beach             1
##  8 FALSE    In the mountains         1
##  9 TRUE     In the mountains         1
## 10 FALSE    At the beach             1
## # … with 539 more rows
```
…
```r
class_survey %>%
  specify(response = warm_fav,
          explanatory = mts_beach,
          success = "TRUE") %>%
  hypothesize(null = "independence") %>%
  generate(reps = 1,
           type = "permute") # a third shuffle
```

```
## Response: warm_fav (factor)
## Explanatory: mts_beach (factor)
## Null Hypothesis: independence
## # A tibble: 549 × 3
## # Groups:   replicate [1]
##    warm_fav mts_beach        replicate
##    <fct>    <fct>                <int>
##  1 TRUE     In the mountains         1
##  2 TRUE     In the mountains         1
##  3 FALSE    At the beach             1
##  4 TRUE     At the beach             1
##  5 FALSE    In the mountains         1
##  6 TRUE     In the mountains         1
##  7 TRUE     At the beach             1
##  8 TRUE     In the mountains         1
##  9 FALSE    In the mountains         1
## 10 FALSE    At the beach             1
## # … with 539 more rows
```
…
```r
class_survey %>%
  specify(response = warm_fav,
          explanatory = mts_beach,
          success = "TRUE") %>%
  hypothesize(null = "independence") %>%
* generate(reps = 500,
           type = "permute")
```

```
## Response: warm_fav (factor)
## Explanatory: mts_beach (factor)
## Null Hypothesis: independence
## # A tibble: 274,500 × 3
## # Groups:   replicate [500]
##    warm_fav mts_beach        replicate
##    <fct>    <fct>                <int>
##  1 TRUE     In the mountains         1
##  2 TRUE     In the mountains         1
##  3 TRUE     At the beach             1
##  4 TRUE     At the beach             1
##  5 TRUE     In the mountains         1
##  6 FALSE    In the mountains         1
##  7 TRUE     At the beach             1
##  8 TRUE     In the mountains         1
##  9 TRUE     In the mountains         1
## 10 FALSE    At the beach             1
## # … with 274,490 more rows
```
…
```
## Response: warm_fav (factor)
## Explanatory: mts_beach (factor)
## Null Hypothesis: independence
## # A tibble: 500 × 2
##    replicate     stat
##        <int>    <dbl>
##  1         1  0.00557
##  2         2 -0.0418 
##  3         3  0.0846 
##  4         4 -0.0260 
##  5         5 -0.0339 
##  6         6 -0.0102 
##  7         7 -0.0260 
##  8         8 -0.0576 
##  9         9 -0.0260 
## 10        10  0.0293 
## # … with 490 more rows
```
…
