Adding Complexity
…
books %>%
  specify(weight ~ volume + cover) %>%
  generate(reps = 500, type = "bootstrap") %>%
  calculate(slope)

Error: Multiple explanatory variables are not supported in calculate(). When working with multiple explanatory variables, use fit() instead.

Bootstrap CIs in R

books %>%
  specify(weight ~ volume + cover) %>%
  generate(reps = 500, type = "bootstrap") %>%
  fit()

# A tibble: 1,500 × 3
# Groups:   replicate [500]
   replicate term      estimate
       <int> <chr>        <dbl>
 1         1 intercept  221.   
 2         1 volume       0.683
 3         1 coverpb   -155.   
 4         2 intercept  134.   
 5         2 volume       0.783
 6         2 coverpb   -159.   
 7         3 intercept  172.   
 8         3 volume       0.764
 9         3 coverpb   -166.   
10         4 intercept  105.   
# … with 1,490 more rows
…
