Lab 6: People’s Park
…
```r
library(infer)
penguins %>%
  specify(response = is_adelie,
          success = "TRUE") %>%
  generate(reps = 1, 
           type = "bootstrap")
```

--

```
## Response: is_adelie (factor)
## # A tibble: 344 × 2
## # Groups:   replicate [1]
##    replicate is_adelie
##        <int> <fct>    
##  1         1 FALSE    
##  2         1 TRUE     
##  3         1 FALSE    
##  4         1 TRUE     
##  5         1 FALSE    
##  6         1 TRUE     
##  7         1 FALSE    
##  8         1 TRUE     
##  9         1 FALSE    
## 10         1 TRUE     
## # … with 334 more rows
```
…
.pull-left[

```r
penguins %>%
  specify(response = is_adelie,
          success = "TRUE") %>%
  generate(reps = 1, 
           type = "bootstrap")
```

```
## Response: is_adelie (factor)
## # A tibble: 344 × 2
## # Groups:   replicate [1]
##    replicate is_adelie
##        <int> <fct>    
##  1         1 TRUE     
##  2         1 FALSE    
##  3         1 FALSE    
##  4         1 TRUE     
##  5         1 FALSE    
##  6         1 TRUE     
##  7         1 FALSE    
##  8         1 TRUE     
##  9         1 FALSE    
## 10         1 FALSE    
## # … with 334 more rows
```
…
--

.pull-right[

```r
penguins %>%
  specify(response = is_adelie,
          success = "TRUE") %>%
  generate(reps = 1, 
           type = "bootstrap")
```

```
## Response: is_adelie (factor)
## # A tibble: 344 × 2
## # Groups:   replicate [1]
##    replicate is_adelie
##        <int> <fct>    
##  1         1 TRUE     
##  2         1 FALSE    
##  3         1 TRUE     
##  4         1 TRUE     
##  5         1 FALSE    
##  6         1 TRUE     
##  7         1 FALSE    
##  8         1 TRUE     
##  9         1 FALSE    
## 10         1 TRUE     
## # … with 334 more rows
```
…
