Data Pipelines
…
<center>
<iframe src="https://embed.polleverywhere.com/multiple_choice_polls/28lvboIzDDmDYiWoxjff1?controls=none&short_poll=true" width="800px" height="600px"></iframe></center>

---

```r
filter(class_survey, 
       coding_exp_scale < 3,
       olympics %in% c("Ice skating", "Speed skating"),
       business != "No")
```

```
## # A tibble: 75 × 27
##    time_at_cal  major  coding_exp_words coding_exp_scale languages favorite_cal 
##    <chr>        <chr>  <chr>                       <dbl> <chr>     <chr>        
##  1 I'm in my f… Busin… None.                           1 <NA>      weather      
##  2 I'm in my s… Molec… None.                           1 <NA>      The lively d…
##  3 I'm in my f… Inten… None.                           2 <NA>      So far most …
##  4 I'm in my s… Busin… Very little. I'…                2 R         The nature a…
##  5 I'm in my f… econo… Very little. I'…                2 Java      the weather  
##  6 I'm in my s… Busin… None.                           1 <NA>      Brilliant pr…
##  7 I'm in my f… busin… None.                           1 <NA>      new opportun…
##  8 I'm in my s… Busin… None.                           1 <NA>      The work har…
##  9 I'm in my f… Appli… None.                           1 <NA>      It's cultura…
## 10 I'm in my s… Busin… None.                           1 <NA>      the people   
## # … with 65 more rows, and 21 more variables: piercings <chr>,
## #   pets_and_sibs <chr>, diet <chr>, study_place <chr>, olympics <chr>,
## #   season <chr>, mts_beach <chr>, coffee_tea <chr>, boba <chr>,
## #   tech_relationships <dbl>, climate <dbl>, crypto <dbl>, more_remote <dbl>,
## #   remote_sem <dbl>, covid_fall <dbl>, hotdogs <chr>, horse_duck <chr>,
## #   health <chr>, tech <chr>, business <chr>, first_year <lgl>
```
---

```r
select(filter(class_survey, 
              coding_exp_scale < 3,
              olympics %in% c("Ice skating", "Speed skating"),
              business != "No"), 
       coding_exp_scale,
       olympics,
       business,
       covid_fall)
```

```
## # A tibble: 75 × 4
##    coding_exp_scale olympics      business covid_fall
##               <dbl> <chr>         <chr>         <dbl>
##  1                1 Ice skating   Yes            1   
##  2                1 Ice skating   Yes            0.75
##  3                2 Ice skating   Yes            0.5 
##  4                2 Ice skating   Yes            0.9 
##  5                2 Ice skating   Yes            0.5 
##  6                1 Ice skating   Yes            0.2 
##  7                1 Ice skating   Yes            0.05
##  8                1 Ice skating   Yes            0.8 
##  9                1 Ice skating   Yes            0   
## 10                1 Speed skating Yes            0.75
## # … with 65 more rows
```
…
--

.pull-right[
Break the pipe after `select()`

```r
class_survey %>%
  select(covid_fall)
```

```
## # A tibble: 552 × 1
##    covid_fall
##         <dbl>
##  1        0.6
##  2        0.5
##  3        0.5
##  4        0.3
##  5        0.3
##  6        0.7
##  7        1  
##  8        0.3
##  9        0.8
## 10        0.6
## # … with 542 more rows
```
…
